{
    "titulo": "Aplicacion de Autores",
    "autor": "AnaM González López",
    "db": {
        "host": "localhost",
        "user": "root",
        "password": "",
        "database": "pruebaphp",
        "port": "3306"
    }
}